site,template,local_ip,remote_ip,remote_as,local_as,anycast_as,anycast_prefix,peer_type,communities
uk-lnd-anycast02,default,108.61.172.212,169.254.169.254,64515,1149,1149,145.100.118.0/23,transit,
sg-sin-anycast01,default,139.180.131.134,169.254.169.254,64515,1149,1149,145.100.118.0/23,transit,
br-poa-anycast02,bird,145.100.118.1,145.100.119.1,1149,1149,1149,145.100.118.0/23,ixp,
br-poa-anycast02,ISP264575,177.52.38.205,177.52.38.113,264575,1149,1149,145.100.118.0/23,transit,
br-poa-anycast02,ISP262605,177.184.254.162,177.184.254.161,262605,1149,1149,145.100.118.0/23,transit,
fr-par-anycast01,default,45.32.151.68,169.254.169.254,64515,1149,1149,145.100.118.0/23,transit,
nl-ens-anycast02,default,192.87.172.193,192.87.172.4,1133,1149,1149,145.100.118.0/23,transit,
nl-ens-anycast02,default,192.87.172.193,192.87.172.5,1133,1149,1149,145.100.118.0/23,transit,
au-syd-anycast01,default,108.61.185.44,169.254.169.254,64515,1149,1149,145.100.118.0/23,transit,
us-was-anycast01,default,128.9.63.135,128.9.63.1,4,1149,1149,145.100.118.0/23,transit,
za-jnb-anycast01,default,196.251.250.248,196.251.250.1,61317,1149,1149,145.100.118.0/23,transit,
nl-ams-anycast01,default,136.244.104.73,169.254.169.254,64515,1149,1149,145.100.118.0/23,transit,
dk-cop-anycast01,default,193.163.102.207,193.163.102.194,39839,1149,1149,145.100.118.0/23,transit,
de-fra-anycast01,default,95.179.245.34,169.254.169.254,64515,1149,1149,145.100.118.0/23,transit,
br-gru-anycast01,bird,145.100.118.1,145.100.119.1,1149,1149,1149,145.100.118.0/23,ixp,
br-gru-anycast01,ISP_1251,200.136.41.30,200.136.41.29,1251,1149,1149,145.100.118.0/23,transit,
br-gru-anycast01,ISP_20080,198.32.252.99,198.32.252.98,20080,1149,1149,145.100.118.0/23,transit,
jp-hnd-anycast01,default,203.178.148.30,203.178.136.16,2500,1149,1149,145.100.118.0/23,transit,
br-gig-anycast01,bird,145.100.118.1,145.100.119.1,1149,1149,1149,145.100.118.0/23,down,
nl-arn-anycast01,default,193.176.144.173,193.176.144.162,1140,1149,1149,145.100.118.0/23,transit,
nl-arn-anycast01,default,193.176.144.173,193.176.144.163,1140,1149,1149,145.100.118.0/23,transit,
us-sea-anycast01,default,137.220.39.22,169.254.169.254,64515,1149,1149,145.100.118.0/23,transit,
us-mia-anycast01,default,198.32.252.97,198.32.252.96,20080,1149,1149,145.100.118.0/23,transit,
us-los-anycast01,default,207.151.17.59,207.151.17.57,226,1149,1149,145.100.118.0/23,transit,
nl-ams-anycast01,default,136.244.104.73,169.254.169.254,64515,1149,1149,145.100.118.0/23,ixp,64600:2914 64600:1299 64600:3257 64600:3356 64600:174 64600:7922 64600:6395 64600:3491 64600:2516 64600:9318 0:1103 0:2603 64600:2603
nl-ams-anycast01,default,136.244.104.73,169.254.169.254,64515,1149,1149,145.100.118.0/23,noixp,64600:6601