Catchment Node Distribution:
uk-lnd-anycast02 | 1835446 -  52%  █████████████████████████
au-syd-anycast01 |  925409 -  26%  ████████████▌
fr-par-anycast01 |  571929 -  16%  ███████▋
us-mia-anycast01 |  189487 -   5%  ██▍
