Catchment Node Distribution:
uk-lnd-anycast02 | 1353670 -  38%  █████████████████████████
us-mia-anycast01 | 1118507 -  31%  ████████████████████▍
au-syd-anycast01 |  652355 -  18%  ███████████▊
fr-par-anycast01 |  391547 -  11%  ███████▏
