Catchment Node Distribution:
uk-lnd-anycast02 | 1693452 -  48%  █████████████████████████
us-mia-anycast01 | 1097128 -  31%  ████████████████▏
au-syd-anycast01 |  670994 -  19%  █████████▉
fr-par-anycast01 |   33752 -   1%  ▌
