Catchment Node Distribution:
uk-lnd-anycast02 | 1297205 -  36%  █████████████████████████
us-mia-anycast01 |  956770 -  26%  ██████████████████
au-syd-anycast01 |  720937 -  20%  █████████████▉
fr-par-anycast01 |  583391 -  16%  ███████████
